{
  "project_info": {
    "project_number": "327682547586",
    "firebase_url": "https://fdiary-205206.firebaseio.com",
    "project_id": "fdiary-205206",
    "storage_bucket": "fdiary-205206.appspot.com"
  },
  "client": [
    {
      "client_info": {
        "mobilesdk_app_id": "1:327682547586:android:a0202bb5ffe07e5b",
        "android_client_info": {
          "package_name": "com.digitonics.friendshipdiary"
        }
      },
      "oauth_client": [
        {
          "client_id": "327682547586-5on8hqsvvnb9kt7g2scg9iv3bc6m3l70.apps.googleusercontent.com",
          "client_type": 3
        },
        {
          "client_id": "327682547586-2mbpupba3pcbe6inrf6v7v2i4jue9jho.apps.googleusercontent.com",
          "client_type": 3
        },
        {
          "client_id": "327682547586-5on8hqsvvnb9kt7g2scg9iv3bc6m3l70.apps.googleusercontent.com",
          "client_type": 3
        }
      ],
      "api_key": [
        {
          "current_key": "AIzaSyCto6U0z36iry7V2QNvOBLnMQYKOyDNkpA"
        }
      ],
      "services": {
        "analytics_service": {
          "status": 1
        },
        "appinvite_service": {
          "status": 1,
          "other_platform_oauth_client": []
        },
        "ads_service": {
          "status": 2
        }
      }
    }
  ],
  "configuration_version": "1"
}